{
  "id": 3,
  "title": "Third article updated",
  "text": "Text of third article updated",
  "date": "2019-11-02",
  "author": "Jane Doe",
  "url": "https://fake.info/article/2019-11-02-third-article"
}
